<?xml version="1.0" encoding="utf-8"?>
<!-- Generator: Adobe Illustrator 21.0.0, SVG Export Plug-In . SVG Version: 6.00 Build 0)  -->
<svg version="1.1" id="katman_1" xmlns="http://www.w3.org/2000/svg" xmlns:xlink="http://www.w3.org/1999/xlink" x="0px" y="0px"
	 viewBox="0 0 386 104" style="enable-background:new 0 0 386 104;" xml:space="preserve">
<style type="text/css">
	.st0{enable-background:new    ;}
	.st1{fill:#ED1C24;}
</style>
<g class="st0">
	<path class="st1" d="M111.4,67.2c-1.2,1.7-3,2.5-5.5,2.5c-1.4,0-2.5-0.4-3.2-1.1c-0.7-0.7-1.3-2-1.8-3.7l-2-6.1
		c-0.5-1.6-1.1-2.8-1.9-3.5c-0.7-0.7-1.7-1-3-1c-0.4,0-1.2,0-2.3,0.1v14.8c-1.1,0.2-2.4,0.3-4.1,0.3c-1.7,0-3.1-0.1-4.1-0.3V33.8
		c1.1-0.2,2.4-0.3,4.1-0.3c1.7,0,3.1,0.1,4.1,0.3v13.7l1.4-0.1c0.6,0,1.1-0.1,1.4-0.3c0.3-0.2,0.6-0.7,1-1.4l5-9.3
		c0.5-1.1,1.1-1.8,1.7-2.3c0.6-0.4,1.5-0.6,2.8-0.6c1.4,0,3,0.1,4.8,0.3l0.5,0.6l-6.4,12c-0.8,1.6-1.8,2.9-2.9,3.8
		c1.6,0.3,2.9,1,3.7,2c0.8,1,1.5,2.3,2.1,3.9l2.1,6.4c0.3,0.8,0.5,1.4,0.6,1.8c0.1,0.4,0.5,1,1,1.9C110.6,66.4,111,66.8,111.4,67.2z
		"/>
</g>
<g class="st0">
	<path class="st1" d="M134.5,58.9H121c0.1,1.5,0.5,2.7,1.2,3.6s1.9,1.3,3.6,1.3c0.8,0,1.8-0.1,2.9-0.4c1.1-0.2,2.3-0.6,3.8-1.2
		c1.1,1.2,1.8,2.8,2.1,4.8c-2.8,2-6.2,3-10.2,3c-2.2,0-4-0.3-5.5-1c-1.5-0.7-2.7-1.7-3.6-2.9c-0.9-1.2-1.6-2.7-1.9-4.4
		c-0.4-1.7-0.6-3.6-0.6-5.6c0-1.9,0.2-3.7,0.7-5.4s1.2-3.1,2.1-4.3c1-1.2,2.2-2.2,3.6-2.9c1.5-0.7,3.2-1,5.2-1
		c1.7,0,3.2,0.3,4.5,0.8c1.3,0.6,2.5,1.3,3.4,2.3c0.9,1,1.7,2.1,2.2,3.5c0.5,1.4,0.8,2.8,0.8,4.4C135.2,55.7,135,57.5,134.5,58.9z
		 M121,53.3h6.8v-0.6c0-1.3-0.3-2.3-0.9-3.2c-0.6-0.8-1.4-1.2-2.6-1.2c-1.1,0-1.9,0.4-2.4,1.2C121.4,50.3,121.1,51.6,121,53.3z"/>
</g>
<g class="st0">
	<path class="st1" d="M150.3,63.3h1.4c0.4,1.2,0.6,2.3,0.6,3.5c0,1.2-0.1,1.9-0.2,2.3c-2.1,0.3-3.9,0.5-5.6,0.5c-2.4,0-4-0.6-5-1.7
		s-1.5-3-1.5-5.5V31.4l0.3-0.4h3.2c1.6,0,2.8,0.4,3.4,1.1c0.7,0.7,1,2,1,3.8v25C148,62.5,148.7,63.3,150.3,63.3z"/>
</g>
<g class="st0">
	<path class="st1" d="M176.1,58.9h-13.5c0.1,1.5,0.5,2.7,1.2,3.6c0.7,0.9,1.9,1.3,3.6,1.3c0.8,0,1.8-0.1,2.9-0.4s2.3-0.6,3.8-1.2
		c1.1,1.2,1.8,2.8,2.1,4.8c-2.8,2-6.2,3-10.2,3c-2.2,0-4-0.3-5.5-1c-1.5-0.7-2.7-1.7-3.6-2.9c-0.9-1.2-1.6-2.7-1.9-4.4
		c-0.4-1.7-0.6-3.6-0.6-5.6c0-1.9,0.2-3.7,0.7-5.4s1.2-3.1,2.1-4.3c1-1.2,2.2-2.2,3.6-2.9c1.5-0.7,3.2-1,5.2-1
		c1.7,0,3.2,0.3,4.5,0.8c1.3,0.6,2.5,1.3,3.4,2.3c0.9,1,1.7,2.1,2.2,3.5c0.5,1.4,0.8,2.8,0.8,4.4C176.8,55.7,176.5,57.5,176.1,58.9z
		 M162.5,53.3h6.8v-0.6c0-1.3-0.3-2.3-0.9-3.2c-0.6-0.8-1.4-1.2-2.6-1.2c-1.1,0-1.9,0.4-2.4,1.2S162.6,51.6,162.5,53.3z"/>
	<path class="st1" d="M181.7,68V31.4l0.4-0.4h3.1c1.6,0,2.7,0.4,3.4,1.1c0.7,0.7,1,2,1,3.8v8.7c1.8-1.2,3.8-1.8,6-1.8
		c3,0,5.3,1.2,6.9,3.7c1.5,2.5,2.3,5.8,2.3,9.9c0,2-0.3,3.8-0.9,5.4c-0.6,1.6-1.5,3-2.6,4.2c-1.1,1.2-2.5,2.1-4,2.7
		c-1.6,0.6-3.3,1-5.2,1C188,69.7,184.6,69.1,181.7,68z M193.2,49.3c-1.4,0-2.5,0.6-3.6,1.7v12.7c0.3,0.1,0.7,0.1,1.1,0.2
		c0.4,0,0.8,0.1,1.3,0.1c3,0,4.5-2.6,4.5-7.8C196.5,51.6,195.4,49.4,193.2,49.3z"/>
	<path class="st1" d="M229.7,58.9h-13.5c0.1,1.5,0.5,2.7,1.2,3.6c0.7,0.9,1.9,1.3,3.6,1.3c0.8,0,1.8-0.1,2.9-0.4
		c1.1-0.2,2.3-0.6,3.8-1.2c1.1,1.2,1.8,2.8,2.1,4.8c-2.8,2-6.2,3-10.2,3c-2.2,0-4-0.3-5.5-1c-1.5-0.7-2.7-1.7-3.6-2.9
		c-0.9-1.2-1.6-2.7-1.9-4.4c-0.4-1.7-0.6-3.6-0.6-5.6c0-1.9,0.2-3.7,0.7-5.4s1.2-3.1,2.1-4.3c1-1.2,2.2-2.2,3.6-2.9
		c1.5-0.7,3.2-1,5.2-1c1.7,0,3.2,0.3,4.5,0.8c1.3,0.6,2.5,1.3,3.4,2.3s1.7,2.1,2.2,3.5c0.5,1.4,0.8,2.8,0.8,4.4
		C230.4,55.7,230.2,57.5,229.7,58.9z M216.2,53.3h6.8v-0.6c0-1.3-0.3-2.3-0.9-3.2c-0.6-0.8-1.4-1.2-2.6-1.2c-1.1,0-1.9,0.4-2.4,1.2
		C216.6,50.3,216.3,51.6,216.2,53.3z"/>
	<path class="st1" d="M255.2,58.9l1.3,3.8c0.7,2.3,1.5,3.8,2.5,4.4c-1.5,1.7-3.3,2.5-5.5,2.5c-1.1,0-2-0.3-2.6-0.8
		c-0.6-0.5-1.1-1.5-1.6-2.8l-1.6-4.5c-0.3-1.1-0.7-1.8-1.2-2.2s-1.1-0.5-1.8-0.5c-0.8,0-1.3,0-1.6,0.1v10.3
		c-1.1,0.2-2.5,0.3-3.9,0.3c-1.5,0-2.8-0.1-3.9-0.3V31.4l0.4-0.4h3.1c1.6,0,2.8,0.4,3.4,1.1c0.7,0.7,1,2,1,3.8v16.3h0.8
		c0.6,0,1.1-0.3,1.5-0.9l2.7-5.2c1-2,2.5-3,4.6-3c1,0,2.5,0,4.5,0.1l0.3,0.4l-4,7.7c-0.7,1.3-1.6,2.3-2.7,3.1
		C253,55.2,254.5,56.7,255.2,58.9z"/>
</g>
<g class="st0">
	<path class="st1" d="M283,40.8l0.1,4.1v3.3h11.2c0.3,1,0.4,2.2,0.4,3.4c0,1.2-0.1,2.4-0.4,3.4H283v14.3c-1.1,0.2-2.5,0.3-4.1,0.3
		s-3-0.1-4.1-0.3V34.1l0.4-0.3h22.2c0.2,0.9,0.3,1.9,0.3,3.2s-0.4,2.3-1.1,2.9c-0.7,0.6-1.8,0.9-3.4,0.9H283z"/>
</g>
<g class="st0">
	<path class="st1" d="M321.7,65.5c-0.2,0.7-0.5,1.5-1,2.3c-0.5,0.8-1,1.4-1.5,1.8c-2.4-0.1-4.3-1-5.6-2.8c-2.3,2.1-4.7,3.1-7.3,3.1
		c-1.4,0-2.5-0.2-3.5-0.6c-1-0.4-1.9-1-2.5-1.7c-0.7-0.7-1.2-1.6-1.6-2.5c-0.3-1-0.5-1.9-0.5-3c0-1.5,0.3-2.8,0.8-3.9
		c0.5-1.1,1.3-2.1,2.2-2.8c0.9-0.7,2-1.3,3.3-1.7c1.2-0.4,2.6-0.6,4-0.6c0.8,0,1.5,0,2.1,0c0.6,0,1.1,0,1.6,0.1v-1
		c0-2.2-1.1-3.3-3.4-3.3c-1.5,0-4,0.6-7.6,1.7c-1-1.2-1.7-3.1-2-5.7c0.8-0.3,1.8-0.6,2.8-0.9c1-0.3,2.1-0.5,3.1-0.7
		c1.1-0.2,2.1-0.4,3.2-0.5c1-0.1,2-0.2,2.8-0.2c1.2,0,2.4,0.2,3.5,0.5c1.1,0.3,2.1,0.9,3,1.6c0.8,0.7,1.5,1.6,2,2.8
		c0.5,1.1,0.8,2.5,0.8,4v10.5C320.3,63.7,320.8,64.9,321.7,65.5z M306,61.6c0,1.6,0.9,2.4,2.8,2.4c1,0,2.1-0.5,3.3-1.5v-4.2
		c-0.7,0-1.3-0.1-1.7-0.1s-0.8,0-1.1,0C307.1,58.3,306,59.4,306,61.6z"/>
	<path class="st1" d="M336.5,63.3h1.4c0.4,1.2,0.6,2.3,0.6,3.5c0,1.2-0.1,1.9-0.2,2.3c-2.1,0.3-3.9,0.5-5.6,0.5c-2.4,0-4-0.6-5-1.7
		s-1.5-3-1.5-5.5V31.4l0.3-0.4h3.2c1.6,0,2.8,0.4,3.4,1.1c0.7,0.7,1,2,1,3.8v25C334.2,62.5,335,63.3,336.5,63.3z"/>
	<path class="st1" d="M352,49.3v20c-1.1,0.2-2.5,0.3-4,0.3c-1.5,0-2.9-0.1-4.1-0.3V52.1c0-2-0.8-3-2.4-3h-0.8
		c-0.2-0.7-0.3-1.6-0.3-2.8c0-1.2,0.1-2.1,0.3-2.9c1.8-0.2,3.3-0.3,4.6-0.3h1.1c1.7,0,3.1,0.6,4.1,1.7C351.5,45.9,352,47.4,352,49.3
		z"/>
</g>
<path class="st1" d="M56.5,80.6c3.2-2.4,9.8-8.6,9.8-8.6s0.1-1.5,0.4-1.8c0.4-0.3,0.6-0.9,0.3-1.4c-0.1-0.7-0.7-1.3-1.4-1.3
	c-0.7,0-1.5,0-2.2,0.1c0,0,1.3-6.2,1.6-7.9s2.8-8.8,3.8-11.6s2-10.4,1.5-10.3s-1.6,8.8-2.2,10.4s-3.1,9.5-3.4,10.9S62.9,66,63,66.7
	s-0.7,1.2-0.7,1.2l-1.5,0.9c0,0,5.6-18.2,2.8-29.9S57.4,17,55.2,15.5s-3.4-2.1-4-1.4s-2.1,0.7-2.3,1.9s-2.4,1.9-2.6,3.6
	s-1.9,3.9-1.8,5.2c0.1,1.3-2.9,3.9-2.5,5.4c0.2,0.9,0.5,1.7,0.9,2.5c0,0-4,1.2-3.5,2.8s-3.7,2.1-4.5,2.9s-4.3,2.2-4.8,3.4
	s-1.5,3.3-0.5,4.8s6.5,7.8,6.5,7.8s-7.8-2.3-9.5-1.2s-3.2,3.2-4.5,3.6c0,0-1.2,3.7-2.9,3.6c0,0-0.6,5.4-2.1,5.9c0,0,0.4,3.8-1.4,5
	c0,0,2.8,3.8,1.1,5.2c0,0,1.3,4-0.3,5.2c0,0,2,3.9,1.7,4.7c1.1,0.6,2.5,0.7,3.7,0.2c2.3-0.6,5.6-1.1,7.6-0.5
	c2.8,0.8,5.8,0.9,8.6,0.2c3.1-0.9,7.1-1.7,7.1-1.7s-3.4,2.9-3.8,5s1.3,1.5,2,1.1C46.7,89.4,53.7,82.7,56.5,80.6z"/>
</svg>
